Using the fusionACS package – fusionACS
…
Computing estimates for categorical analyses:
 ~ mean(equipm) 
Computing estimates for numerical analyses:
 ~ mean(btung_per_ft2)
 ~ median(btung_per_ft2) 

test

# A tibble: 48 × 13
   lhs    rhs   type  ten   level  N_eff    ubar b         est moe   se    df   
   <chr>  <chr> <chr> <chr> <fct>  <dbl>   <dbl> <lgl>   <dbl> <lgl> <lgl> <lgl>
 1 mean_… mean… mean  Occu… <NA>    94.4 2.70e+0 NA    2.22e+1 NA    NA    NA   
 2 mean_… mean… mean  Owne… <NA>  1848.  1.30e-1 NA    2.01e+1 NA    NA    NA   
 3 mean_… mean… mean  Owne… <NA>  2178.  7.61e-2 NA    1.87e+1 NA    NA    NA   
 4 mean_… mean… mean  Rent… <NA>  1129.  2.80e-1 NA    2.33e+1 NA    NA    NA   
 5 media… medi… medi… Occu… <NA>    94.4 2.56e+0 NA    1.78e+1 NA    NA    NA   
 6 media… medi… medi… Owne… <NA>  1848.  9.69e-2 NA    1.69e+1 NA    NA    NA   
 7 media… medi… medi… Owne… <NA>  2178.  6.26e-2 NA    1.63e+1 NA    NA    NA   
 8 media… medi… medi… Rent… <NA>  1129.  1.81e-1 NA    1.95e+1 NA    NA    NA   
 9 mean_… mean… prop  Occu… No s…   94.4 2.35e-4 NA    9.00e-3 NA    NA    NA   
10 mean_… mean… prop  Occu… Cent…   94.4 2.03e-3 NA    7.48e-1 NA    NA    NA   
# ℹ 38 more rows
# ℹ 1 more variable: cv <lgl>
…
