Using the fusionACS package • fusionACS
…
## Computing estimates for categorical analyses:
##  ~ mean(equipm) 
## Computing estimates for numerical analyses:
##  ~ mean(btung_per_ft2)
##  ~ median(btung_per_ft2)

test

## # A tibble: 48 × 9
##    lhs                  rhs         type  ten   level  N_eff     est moe   cv   
##    <chr>                <chr>       <chr> <chr> <chr>  <dbl>   <dbl> <lgl> <lgl>
##  1 mean_btung_per_ft2   mean(btung… mean  Occu… NA     1778. 2.20e+1 NA    NA   
##  2 mean_btung_per_ft2   mean(btung… mean  Owne… NA    39357  1.99e+1 NA    NA   
##  3 mean_btung_per_ft2   mean(btung… mean  Owne… NA    41944  1.86e+1 NA    NA   
##  4 mean_btung_per_ft2   mean(btung… mean  Rent… NA    19847  2.23e+1 NA    NA   
##  5 median_btung_per_ft2 median(btu… medi… Occu… NA     1778. 1.85e+1 NA    NA   
##  6 median_btung_per_ft2 median(btu… medi… Owne… NA    39357  1.71e+1 NA    NA   
##  7 median_btung_per_ft2 median(btu… medi… Owne… NA    41944  1.63e+1 NA    NA   
##  8 median_btung_per_ft2 median(btu… medi… Rent… NA    19847  1.92e+1 NA    NA   
##  9 mean_equipm          mean(equip… prop  Occu… No s…  1778. 7.36e-3 NA    NA   
## 10 mean_equipm          mean(equip… prop  Occu… Cent…  1778. 7.14e-1 NA    NA   
## # ℹ 38 more rows
…
